{
  "token": "5662872677:AAEJQrOVQ0EEuleM_lEJ3yR_GEfllPxIOnM",
  "stickers": [
    {
      "name": "cuteGirl",
      "url": "https://cdn.tlgrm.app/stickers/175/10e/17510e63-2d89-41ec-a18c-1e3351dd42b1/192/7.webp"
    },
    {
      "name": "kitty",
      "url": "https://cdn.tlgrm.app/stickers/175/10e/17510e63-2d89-41ec-a18c-1e3351dd42b1/192/2.webp"
    },
    {
      "name": "awoke",
      "url": "https://cdn.tlgrm.app/stickers/2a4/f22/2a4f2292-54b5-4392-9d5f-2c06eaa0166b/192/2.webp"
    },

    {
      "name": "kitty_sex",
      "url": "https://cdn.tlgrm.app/stickers/711/2ce/7112ce51-3cc1-42ca-8de7-62e7525dc332/192/1.webp"
    }
  ],
  "pictures": [
    {
      "name": "ti_eblan",
      "url": "https://www.meme-arsenal.com/memes/77dd1571dc0ce02365bee14ae0a5b959.jpg"
    },
    {
      "name": "mandarin",
      "url": "https://sun9-east.userapi.com/sun9-33/s/v1/ig2/K7s6Vic20RG99b-nlB0scpt-kTNI9eTfobweVx2X-lEomT-l1-1fhJR_4yQ7v6_wh957xueh1jusiAQf9NvOcNy1.jpg?size=736x736&quality=95&type=album"
    },
    {
      "name": "kitty_and_frog",
      "url": "https://i.imgur.com/LKE8oXS.jpg"
    },
    {
      "name": "trap_rofl",
      "url": "https://i.imgur.com/wASRj1z.jpg"
    },
    {
      "name": "black_and_white_kitty",
      "url": "https://i.imgur.com/J4DLeY1.jpg"
    }
  ],
  "weapons": [
    {
      "id": 0,
      "name": "rusty_sword",
      "price": 10,
      "iType": "WEAPON",
      "damage": 5,
      "wType": "SWORD"
    },
    {
      "id": 1,
      "name": "metal_sword",
      "price": 50,
      "iType": "WEAPON",
      "damage": 17,
      "wType": "SWORD"
    },
    {
      "id": 2,
      "name": "magic_wand",
      "price": 100,
      "iType": "WEAPON",
      "damage": 25,
      "wType": "STICK"
    },
    {
      "id": 3,
      "name": "tungsten_sword",
      "price": 500,
      "iType": "WEAPON",
      "damage": 44,
      "wType": "SWORD"
    }
  ],
  "clothes": [
    {
      "id": 4,
      "name": "tshirt",
      "price": 10,
      "iType": "CLOTHES",
      "health": 5,
      "cType": "TSHIRT"
    },
    {
      "id": 5,
      "name": "shorts",
      "price": 50,
      "iType": "CLOTHES",
      "health": 17,
      "cType": "SHORTS"
    },
    {
      "id": 6,
      "name": "bracers",
      "price": 10,
      "iType": "CLOTHES",
      "health": 2,
      "cType": "BRASERS"
    },
    {
      "id": 7,
      "name": "boots",
      "price": 500,
      "iType": "CLOTHES",
      "health": 44,
      "cType": "BOOTS"
    }
  ],
  "runes": [
    {
      "id": 8,
      "name": "wealth",
      "price": 150,
      "iType": "RUNES",
      "health": 30,
      "damage": 0,
      "reward": 40,
      "rType": "WEALTH"
    },
    {
      "id": 9,
      "name": "war",
      "price": 250,
      "iType": "RUNES",
      "health": 15,
      "damage": 24,
      "reward": 0,
      "rType": "WAR"
    },
    {
      "id": 10,
      "name": "love",
      "price": 300,
      "iType": "RUNES",
      "health": 70,
      "damage": 0,
      "reward": 10,
      "rType": "LOVE"
    },
    {
      "id": 11,
      "name": "equal",
      "price": 470,
      "iType": "RUNES",
      "health": 25,
      "damage": 25,
      "reward": 25,
      "rType": "EQUAL"
    }
  ]
}